"idcontrol_ci","creacion","pais","estatus","tipo","codigo","nombre","rango","estado","codigop","nombrep","correo","telefono","celular","b1","b2","b3","b4","b5","b6","b7","b8","b9","clave","actualizacion"
"36479","2009-12-10 00:00:00","1","1","CI","4159203","SAENZ DIAZ  GILMA IRENE","Plata","Boyaca","4136803","LONDONO TORRES, MARIA ISABEL","gilmairene@hotmail.com","(8)770-42-22","(310)556-22-07","1","0","0","1","0","0","0","0","0",,"2016-04-02 01:16:19"
"36480","2009-12-10 00:00:00","1","1","CI","4183703","RODRIGUEZ CABALLERO  NOHRA GLADYS","Directo","Cundinamarca","4137103","PINEDA MENDEZ, STELLA","mayus7@hotmail.com","(1)276-83-25","(312)488-88-22","1","0","0","1","0","0","0","0","0",,"2016-01-01 00:00:00"
"36481","2009-12-10 00:00:00","1","1","CI","4188303","MOLINA DUQUE, JUAN PABLO","Superior","Antioquia","3108703","CARO HENAO, RAFAEL ANGEL","marthaduque80@hotmail.com","(4)3211161","(322)5687206","1","0","0","1","0","0","0","0","0",,"2016-01-30 00:14:06"
"36482","2009-12-10 00:00:00","1","1","CI","4193103","ROJAS CALDERON  JUDITH","Oro","Meta","4028303","VILLANUEVA CALDERON, MARTHA LILIANA","juroca.4@gmail.com","(8) 667-97-26","311- 820-63-93","1","0","0","1","0","0","0","0","0",,"2016-04-05 00:50:02"
"36483","2009-12-10 00:00:00","1","1","CI","4195003","ACOSTA VILLAVECES  MARIA DEL PILAR","Superior","Cundinamarca","4154403","GUTIERREZ RICAURTE, SONIA","pilaracosta31@hotmail.com","(1)629-45-88",,"1","0","0","1","0","0","0","0","0",,"2016-01-01 00:00:00"
"36484","2009-12-10 00:00:00","1","1","CI","4197203","MEJIA BORJA  ALVARO","Plata","Antioquia","2070603","ROA TORRES BEATRIZ EUGENIA","esteripac2001@yahoo.es","(4)553-25-39","(312)834-85-55","1","0","0","1","0","0","0","0","0",,"2016-04-02 01:16:25"
"36485","2009-12-10 00:00:00","1","0","CI","4197903","GALEANO PARDO  NUBIA","Directo","Cundinamarca","3902303","MONTEJO BERNAL, MARIA CONSTANZA","ngaleano@wacol.com.co","(1)629-43-59","(315)601-34-35","1","0","0","1","0","0","0","0","0",,"2016-01-17 00:17:44"
"36486","2009-12-10 00:00:00","1","1","CI","4198003","GOMEZ DE MARQUEZ  ORLANDA","Plata","Cundinamarca","3289503","PULIDO CHARRY  MARTHA EUGENIA","orlagogu@gmail.com","(1)235-26-23",,"1","0","0","1","0","0","0","0","0",,"2016-01-01 00:00:00"
"36487","2009-12-10 00:00:00","1","1","CI","4198403","PALENCIA CORDOBA  MARIELA","Oro","Cundinamarca","4198003","GOMEZ DE MARQUEZ, ORLANDA","mapaco07@yahoo.com","(1)222-80-92","3142382853","1","0","0","1","0","0","0","0","0",,"2016-01-01 00:00:00"
"36488","2009-12-10 00:00:00","1","0","CI","4201403","SANCHEZ REYES  ESPERANZA","Superior","Cundinamarca","2450403","ARENAS, JORGE ENRIQUE","sanchezreyes@etb.net.co","(1)211-25-87","(311)208-69-78","1","0","0","1","0","0","0","0","0",,"2016-01-17 00:17:47"
"36489","2009-12-10 00:00:00","1","1","CI","4207603","ROJAS CALDERON  MARIA CRISTINA","Ejecutivo","Caquetas","4193103","ROJAS CALDERON, JUDITH","cristina.rojas00@yahoo.es","(7)436-00-77",,"1","0","0","1","0","0","0","0","0",,"2016-04-02 01:16:28"
"36490","2009-12-10 00:00:00","1","1","CI","4212903","AREVALO AREVALO  ELSA MARGARITA","Superior","Cundinamarca","4154403","GUTIERREZ RICAURTE, SONIA","elsa.are@gmail.com","(1)253-45-55","(315)894-07-31","1","0","0","1","0","0","0","0","0",,"2016-01-01 00:00:00"
"36491","2009-12-10 00:00:00","1","0","CI","4215803","BALLESTEROS MEJIA  ADRIANA","Ejecutivo","Cundinamarca","3791003","CASTIBLANCO CAVALEANTE, ANA DENISE","aballesteros@cable.net.co","(1)248-12-56","(310)856-81-02","1","0","0","1","0","0","0","0","0",,"2016-01-17 00:17:50"
"36492","2009-12-10 00:00:00","1","1","CI","4221603","QUINTERO GUEVARA  ORLANDO","Superior","Cundinamarca","3226003","OCHOA MARULANDA, ERNESTO","orlandoq.bienestartotal@gmail.com","(1)261-34-86","(313)222-47-74","1","0","0","1","0","0","0","0","0",,"2016-01-01 00:00:00"
"36493","2009-12-10 00:00:00","1","1","CI","4221703","RESTREPO CEBALLOS  CONSUELO DEL SOCORRO","Oro","Antioquia","3891703","ARISTIZABAL PALACIO, ADRIANA MARIA","masbienestartotal@hotmail.com","(4)256-17-71",,"1","0","0","1","0","0","0","0","0",,"2016-03-01 00:32:27"
"36494","2009-12-10 00:00:00","1","1","CI","4223503","ALFEREZ LOPEZ  GUILLERMO","Plata","Cundinamarca","3786203","CARVAJAL HENAO, OLGA LUCIA","asetec.geradm@etb.net.co",,"(315)337-70-49","1","0","0","1","0","0","0","0","0",,"2016-01-01 00:00:00"
"36495","2009-12-10 00:00:00","1","1","CI","4226603","BERNAL MARULANDA  GRACIELA","Superior","Valle del Cauca","2969403","YANGUAS ARBOLEDA, ADRIANA","gracielabm85@hotmail.com","(2)513-39-68","(312)843-25-31","1","0","0","1","0","0","0","0","0",,"2016-01-01 00:00:00"
"36496","2009-12-10 00:00:00","1","1","CI","4227203","HENAO ALVAREZ  LUZ MARINA","Plata","Antioquia","2051703","PEREZ ARANGO, JAIME ALBERTO","lizluzmahe@yahoo.com","(4)306-10-17","312 866-80-78","1","0","0","1","0","0","0","0","0",,"2016-01-01 00:00:00"
"36497","2009-12-10 00:00:00","1","1","CI","4232503","ROMERO OVIEDO  HORLENY","Superior","Santander","2350003","LEON PAEZ LAURA","horleny_hro@hotmail.com","(7) 620-52-20","300- 322-91-54","1","0","0","1","0","0","0","0","0",,"2016-01-01 00:00:00"
"36498","2009-12-10 00:00:00","1","1","CI","4234603","DUQUE DURAN, MARGARITA MARIA","Plata","Cundinamarca","3450203","VASQUEZ JARAMILLO  CLAUDIA MARIA","margaraduque7@yahoo.com","(1)637-07-04","(311)876-51-62","1","0","0","1","0","0","0","0","0",,"2016-04-02 01:16:31"
"36499","2009-12-10 00:00:00","1","1","CI","4234703","MUNOZ NANEZ  BERTHA YOLIMA","Plata","Cauca","2186803","GUTIERREZ PENA, DANIEL CAMILO","yolimocha@hotmail.com","( )824-23-11","(317)770-49-92","1","0","0","1","0","0","0","0","0",,"2016-04-02 01:16:35"
"36500","2009-12-10 00:00:00","1","1","CI","4235403","VILLALBA DE GOMEZ  YOLANDA","Plata","Cundinamarca","3374803","MORALES GOMEZ, JUAN CARLOS","yolygom5@hotmail.com","(1)368-20-56","(300)579-29-13","1","0","0","1","0","0","0","0","0",,"2016-03-01 00:32:31"
"36501","2009-12-10 00:00:00","1","0","CI","4235703","DEL CORRAL FERNANDEZ  MARTHA EUGENIA","Ejecutivo","Cundinamarca","2102103","TORRES TORRES, ELSA JEANNETTE","lesun_eu@yahoo.com","(1)801-84-28","(310)867-67-95","1","0","0","1","0","0","0","0","0",,"2016-01-17 00:17:54"
"36502","2009-12-10 00:00:00","1","1","CI","4236703","SANCHEZ CANDELA  BLANCA CECILIA","Superior","Cundinamarca","2070603","ROA TORRES BEATRIZ EUGENIA","sanchez.blancacecilia@gmail.com","(1)682-66-69","(314)2814468","1","0","0","1","0","0","0","0","0",,"2016-01-01 00:00:00"
"36503","2009-12-10 00:00:00","1","1","CI","4241203","BARRERA PUENTES  LINA PAOLA","Plata","Cundinamarca","2149203","RINCON GONZALEZ, ANA MARIA","paobarrera@hotmail.com",,"313 8886968","1","0","0","1","0","0","0","0","0",,"2016-04-05 00:50:05"
"36504","2009-12-10 00:00:00","1","1","CI","4243703","MELO MONROY  NUBIA CRISTINA","Bronce","Boyaca","4159203","SAENZ DIAZ, GILMA IRENE","elenamelroy@hotmail.com","(8)771-49-46","(312)392-48-73","1","0","0","1","0","0","0","0","0",,"2016-03-18 00:06:06"
"36505","2009-12-10 00:00:00","1","1","CI","4244903","GONZALEZ PEREZ  MAXIMO ANTONIO","Directo","Cundinamarca","4154403","GUTIERREZ RICAURTE, SONIA","maxtoo57@yahoo.com","(1)8119862","3108153998","1","0","0","1","0","0","0","0","0",,"2016-01-01 00:00:00"
"36506","2009-12-10 00:00:00","1","1","CI","4259903","ROA GOMEZ  FELIX ARTURO","Plata","Cundinamarca","3424403","ARENAS OVALLE, MARIA ISABEL","arturoroa@cable.net.co","(1)643-30-99","(313)828-27-78","1","0","0","1","0","0","0","0","0",,"2016-01-09 00:08:32"
"36507","2009-12-10 00:00:00","1","1","CI","4260103","ACOSTA SERRANO  CARLOS ALFONSO","Ejecutivo","Cundinamarca","3424403","ARENAS OVALLE, MARIA ISABEL","casoacosta@yahoo.es","(1)416-41-30","(311)819-35-10","1","0","0","1","0","0","0","0","0",,"2016-01-01 00:00:00"
"36508","2009-12-10 00:00:00","1","1","CI","4261003","PINEDA DE VARELA  MARY","Superior","Cundinamarca","3133903","RODRIGUEZ DE ANGULO, MARTHA ELENA","pineda874@hotmail.com","(1)612-19-71","(310)874-98-19","1","0","0","1","0","0","0","0","0",,"2016-01-01 00:00:00"
"36509","2009-12-10 00:00:00","1","1","CI","4263703","CLAVIJO BORBON, DORA LIGIA","Plata","Cundinamarca","3424403","ARENAS OVALLE, MARIA ISABEL","doraligia_11@hotmail.com","(1)474-62-13","(313)2734453","1","0","0","1","0","0","0","0","0",,"2016-02-27 00:33:58"
"36510","2009-12-10 00:00:00","1","1","CI","4265703","GUERRERO GONZALEZ  RAFAEL IGNACIO","Plata","Cundinamarca","3424403","ARENAS OVALLE, MARIA ISABEL","rafafun@hotmail.com","(1)660-61-62","(313)422-17-52","1","0","0","1","0","0","0","0","0",,"2016-04-02 01:16:41"
"36511","2009-12-10 00:00:00","1","1","CI","4269503","MARTINEZ BORJA  NYLSE ISABEL","Superior","Antioquia","4197203","MEJIA BORJA, ALVARO","nylseisabel@hotmail.com","(4)568 11 33","(311)605-53-82","1","0","0","1","0","0","0","0","0",,"2016-01-01 00:00:00"
"36512","2009-12-10 00:00:00","1","0","CI","4272003","BARRERO GONZALEZ, GIOVANY MAURICIO","Ejecutivo","Cundinamarca","4114303","GONZALEZ FLOREZ, GENIA ELIZABETH","xpaiter@yahoo.com","(1)253-09-99","(316)3310148","1","0","0","1","0","0","0","0","0",,"2016-01-17 00:17:57"
"36513","2009-12-10 00:00:00","1","0","CI","4272203","MONCADA CARVAJAL  RUBIELA","Bronce","Cundinamarca","3424403","ARENAS OVALLE, MARIA ISABEL","bubicita@hotmail.com","(1)482-03-94",,"1","0","0","1","0","0","0","0","0",,"2016-01-17 00:18:00"
"36514","2009-12-10 00:00:00","1","1","CI","4276503","MORENO RAMOS  DORIS","Plata","Cundinamarca","3424403","ARENAS OVALLE, MARIA ISABEL","dorisnikken@hotmail.com","(1)660-99-82","(317)4003866","1","0","0","1","0","0","0","0","0",,"2016-04-05 00:56:49"
"36515","2009-12-10 00:00:00","1","1","CI","4276803","ANGARITA GOMEZ  ALIX JOHANA","Superior","Santander","3374803","MORALES GOMEZ, JUAN CARLOS","joffis@hotmail.com","(7)636-96-25","(311)222-00-89","1","0","0","1","0","0","0","0","0",,"2016-01-01 00:00:00"
"36516","2009-12-10 00:00:00","1","1","CI","4278703","OSPINA BARREIRO  HERNAN","Superior","Huila","3463503","OSPINA DE MANRIQUE, ELSA","hernanospinab@hotmail.com","(8)8701371","(317)7611696","1","0","0","1","0","0","0","0","0",,"2016-01-01 00:00:00"
"36517","2009-12-10 00:00:00","1","1","CI","4281303","SOLANO LAYTON  GLORIA","Platino","Cundinamarca","2792403","ALVAREZ PEREZ, MIGUEL ERNESTO","gsolano20@hotmail.com","(1)427-16-48","(315)310-37-93","1","0","0","1","0","0","0","0","0",,"2016-04-05 00:56:52"
"36518","2009-12-10 00:00:00","1","0","CI","4290203","MEJIA URIBE  CARLOS ENRIQUE","Superior","Antioquia","4098503","BOTERO URIBE, MARTHA","elfin_del_afan_1@hotmail.com","(4)3264152","312- 296-41-30","1","0","0","1","0","0","0","0","0",,"2016-01-17 00:18:03"
"36519","2009-12-10 00:00:00","1","1","CI","4292703","CALLE DALEMAN  DIANA PATRICIA","Platino","Antioquia","3891703","ARISTIZABAL PALACIO, ADRIANA MARIA","dcalled2@hotmail.com","(4)321-35-90","(300)210-21-02","1","0","0","1","0","0","0","0","0",,"2016-04-05 00:56:55"
"36520","2009-12-10 00:00:00","1","1","CI","4293603","QUEVEDO REYES  ANDRES FELIPE","Plata","Cundinamarca","2070603","ROA TORRES BEATRIZ EUGENIA","andresfqr@yahoo.com","(1)619-83-01","(315)7913952","1","0","0","1","0","0","0","0","0",,"2016-04-05 00:56:58"
"36521","2009-12-10 00:00:00","1","1","CI","4310503","MUGICA ESCOBAR  MARTHA EMILIA","Ejecutivo","Cundinamarca","3706503","GARCIA BERNAL, MARIA CLAUDIA","meme66@gmail.com","(1)226-66-84","(311)219-00-39","1","0","0","1","0","0","0","0","0",,"2016-01-01 00:00:00"
"36522","2009-12-10 00:00:00","1","0","CI","5024803","MONTOYA GOMEZ  JUAN CARLOS","Plata","Antioquia","3643003","MARTINEZ RESTREPO, PUBENZA","mongoz@une.net.co","(4)317 21 94","(312)850 79 86","1","0","0","1","0","0","0","0","0",,"2016-01-17 00:18:06"
"36523","2009-12-10 00:00:00","1","1","CI","5025603","PULIDO MARTINEZ LUZ ANGELA","Plata","Valle del Cauca","2056703","ORDONEZ GOMEZ LUIS FERNANDO","luzangelapulidomartinez@hotmail.com","3757354","3164067844","1","0","0","1","0","0","0","0","0",,"2016-01-01 00:00:00"
"36524","2009-12-10 00:00:00","1","1","CI","5026003","GUTIERREZ FRANCO  LILIANA","Directo","Valle del Cauca","2406003","ANGEL ROLDAN, MARIA ISABEL","carlosfravi@yahoo.es","(2)557-31-71","315-532-06-50","1","0","0","1","0","0","0","0","0",,"2016-01-01 00:00:00"
"36525","2009-12-10 00:00:00","1","1","CI","5026203","ZUNIGA ROBLEDO  NELSON MARINO","Directo","Valle del Cauca","2406003","ANGEL ROLDAN, MARIA ISABEL","anazamzu@gmail.com","(2)516-19-08","315-433-79-68","1","0","0","1","0","0","0","0","0",,"2016-01-01 00:00:00"
"36526","2009-12-10 00:00:00","1","1","CI","5029603","SANABRIA POVEDA  JOSE ANDERSON","Ejecutivo","Cundinamarca","4581903","VILLALBA ROJAS, LUZ NAIDU","jasanabria@msn.com","(1)528-35-78","(315)763-48-22","1","0","0","1","0","0","0","0","0",,"2016-01-06 00:04:22"
"36527","2009-12-10 00:00:00","1","1","CI","5030503","URIBE ESCOBAR  MARIA EUGENIA","Plata","Antioquia","3830803","BURGOS CARVAJAL, CATALINA MARIA","urielramireza@yahoo.com","(4)381-00-48","(300)650-91-50","1","0","0","1","0","0","0","0","0",,"2016-01-01 00:00:00"
"36528","2009-12-10 00:00:00","1","1","CI","5032203","HENAO UMANA  NATALIA","Plata","Cundinamarca","5025603","PULIDO MARTINEZ LUZ ANGELA","natalia_henao_umana@hotmail.com","(1)213-40-08","(310)225-62-35","1","0","0","1","0","0","0","0","0",,"2016-02-27 00:34:09"
